moog_filter.vcd
$version Generated by VerilatedVcd $end
$date Sat Jul 29 22:06:26 2023
 $end
$timescale   1ps $end

 $scope module TOP $end
  $var wire 16 ) audio_in [15:0] $end
  $var wire 16 - audio_out [15:0] $end
  $var wire  1 ( clk $end
  $var wire 16 * cutoff [15:0] $end
  $var wire  1 , reset_n $end
  $var wire 16 + resonance [15:0] $end
  $scope module DigitallyControlledFilter $end
   $var wire 16 1 ONE [15:0] $end
   $var wire 16 2 Q_OFFSET [15:0] $end
   $var wire 16 2 ZERO [15:0] $end
   $var wire 16 # a [15:0] $end
   $var wire 16 ) audio_in [15:0] $end
   $var wire 16 - audio_out [15:0] $end
   $var wire 16 $ b [15:0] $end
   $var wire  1 ( clk $end
   $var wire 16 * cutoff [15:0] $end
   $var wire 16 % q [15:0] $end
   $var wire  1 , reset_n $end
   $var wire 16 + resonance [15:0] $end
   $var wire 16 & scaled_resonance [15:0] $end
   $var wire 16 . temp1 [15:0] $end
   $var wire 16 ' temp2 [15:0] $end
   $var wire 16 0 temp3 [15:0] $end
   $scope module sat_inst $end
    $var wire 16 1 MAX_POS_VALUE [15:0] $end
    $var wire 16 3 MIN_NEG_VALUE [15:0] $end
    $var wire 16 / input_signal [15:0] $end
    $var wire 16 . output_signal [15:0] $end
   $upscope $end
  $upscope $end
 $upscope $end
$enddefinitions $end


#5
b0000000000000000 #
b0000000000000000 $
b0000000000000000 %
b0000000000000000 &
b0000000000000000 '
0(
b0000000000000000 )
b0000000000000000 *
b0000000000000000 +
0,
b0000000000000000 -
b0000000000000000 .
b0000000000000000 /
b0000000000000000 0
b0111111111111111 1
b0000000000000000 2
b1000000000000000 3
#10
#15
1(
1,
#20
#25
0(
#30
#35
b0000000000100000 $
b0110111110000000 %
b0110111110000000 &
b0000000000100000 '
1(
b0000000000100000 )
b0000000010000000 *
b0111000000000000 +
b0000000000100000 .
b0000000000100000 /
#40
#45
0(
#50
#55
b0000000001000000 $
b0000000001000000 '
1(
b0000000000100000 -
#60
#65
0(
#70
#75
b0000000001100000 $
b0000000001100000 '
1(
b0000000001000000 -
#80
#85
0(
#90
#95
b0000000010000000 $
b0000000010000000 '
1(
b0000000001100000 -
#100
#105
0(
#110
#115
b0000000010100000 $
b0000000010100000 '
1(
b0000000010000000 -
#120
#125
0(
#130
#135
b0000000011000000 $
b0000000011000000 '
1(
b0000000010100000 -
#140
#145
0(
#150
#155
b0000000011100000 $
b0000000011100000 '
1(
b0000000011000000 -
#160
#165
0(
#170
#175
b0000000100000000 $
b0000000100000000 '
1(
b0000000011100000 -
#180
#185
0(
#190
#195
b0000000100100000 $
b0000000100100000 '
1(
b0000000100000000 -
#200
#205
0(
#210
#215
b0000000101000000 $
b0000000101000000 '
1(
b0000000100100000 -
#220
#225
0(
#230
#235
b0000000101100000 $
b0000000101100000 '
1(
b0000000101000000 -
#240
#245
0(
#250
#255
b0000000110000000 $
b0000000110000000 '
1(
b0000000101100000 -
#260
#265
0(
#270
#275
b0000000110100000 $
b0000000110100000 '
1(
b0000000110000000 -
#280
#285
0(
#290
#295
b0000000111000000 $
b0000000111000000 '
1(
b0000000110100000 -
#300
#305
0(
#310
#315
b0000000111100000 $
b0000000111100000 '
1(
b0000000111000000 -
#320
#325
0(
#330
#335
b0000001000000000 $
b0000001000000000 '
1(
b0000000111100000 -
#340
#345
0(
#350
#355
b0000001000100000 $
b0000001000100000 '
1(
b0000001000000000 -
#360
#365
0(
#370
#375
b0000001001000000 $
b0000001001000000 '
1(
b0000001000100000 -
#380
#385
0(
#390
#395
b0000001001100000 $
b0000001001100000 '
1(
b0000001001000000 -
#400
#405
0(
#410
#415
b0000001010000000 $
b0000001010000000 '
1(
b0000001001100000 -
#420
#425
0(
#430
#435
b0000001010100000 $
b0000001010100000 '
1(
b0000001010000000 -
#440
#445
0(
#450
#455
b0000001011000000 $
b0000001011000000 '
1(
b0000001010100000 -
#460
#465
0(
#470
#475
b0000001011100000 $
b0000001011100000 '
1(
b0000001011000000 -
#480
#485
0(
#490
#495
b0000001100000000 $
b0000001100000000 '
1(
b0000001011100000 -
#500
#505
0(
#510
#515
b0000001100100000 $
b0000001100100000 '
1(
b0000001100000000 -
#520
#525
0(
#530
#535
b0000001101000000 $
b0000001101000000 '
1(
b0000001100100000 -
#540
#545
0(
#550
#555
b0000001101100000 $
b0000001101100000 '
1(
b0000001101000000 -
#560
#565
0(
#570
#575
b0000001110000000 $
b0000001110000000 '
1(
b0000001101100000 -
#580
#585
0(
#590
#595
b0000001110100000 $
b0000001110100000 '
1(
b0000001110000000 -
#600
#605
0(
#610
#615
b0000001111000000 $
b0000001111000000 '
1(
b0000001110100000 -
#620
#625
0(
#630
#635
b0000001111100000 $
b0000001111100000 '
1(
b0000001111000000 -
#640
#645
0(
#650
#655
b0000010000000000 $
b0000010000000000 '
1(
b0000001111100000 -
#660
#665
0(
#670
#675
b0000010000100000 $
b0000010000100000 '
1(
b0000010000000000 -
#680
#685
0(
#690
#695
b0000010001000000 $
b0000010001000000 '
1(
b0000010000100000 -
#700
#705
0(
#710
#715
b0000010001100000 $
b0000010001100000 '
1(
b0000010001000000 -
#720
#725
0(
#730
#735
b0000010010000000 $
b0000010010000000 '
1(
b0000010001100000 -
#740
#745
0(
#750
#755
b0000010010100000 $
b0000010010100000 '
1(
b0000010010000000 -
#760
#765
0(
#770
#775
b0000010011000000 $
b0000010011000000 '
1(
b0000010010100000 -
#780
#785
0(
#790
#795
b0000010011100000 $
b0000010011100000 '
1(
b0000010011000000 -
#800
#805
0(
#810
#815
b0000010100000000 $
b0000010100000000 '
1(
b0000010011100000 -
#820
#825
0(
#830
#835
b0000010100100000 $
b0000010100100000 '
1(
b0000010100000000 -
#840
#845
0(
#850
#855
b0000010101000000 $
b0000010101000000 '
1(
b0000010100100000 -
#860
#865
0(
#870
#875
b0000010101100000 $
b0000010101100000 '
1(
b0000010101000000 -
#880
#885
0(
#890
#895
b0000010110000000 $
b0000010110000000 '
1(
b0000010101100000 -
#900
#905
0(
#910
#915
b0000010110100000 $
b0000010110100000 '
1(
b0000010110000000 -
#920
#925
0(
#930
#935
b0000010111000000 $
b0000010111000000 '
1(
b0000010110100000 -
#940
#945
0(
#950
#955
b0000010111100000 $
b0000010111100000 '
1(
b0000010111000000 -
#960
#965
0(
#970
#975
b0000011000000000 $
b0000011000000000 '
1(
b0000010111100000 -
#980
#985
0(
#990
#995
b0000011000100000 $
b0000011000100000 '
1(
b0000011000000000 -
#1000
#1005
0(
#1010
#1015
b0000011001000000 $
b0000011001000000 '
1(
b0000011000100000 -
#1020
#1025
0(
#1030
#1035
b0000011000100000 $
b0000011000100000 '
1(
b1111111111100000 )
b0000011001000000 -
b1111111111100000 .
b1111111111100000 /
#1040
#1045
0(
#1050
#1055
b0000011000000000 $
b0000011000000000 '
1(
b0000011000100000 -
#1060
#1065
0(
#1070
#1075
b0000010111100000 $
b0000010111100000 '
1(
b0000011000000000 -
#1080
#1085
0(
#1090
#1095
b0000010111000000 $
b0000010111000000 '
1(
b0000010111100000 -
#1100
#1105
0(
#1110
#1115
b0000010110100000 $
b0000010110100000 '
1(
b0000010111000000 -
#1120
#1125
0(
#1130
#1135
b0000010110000000 $
b0000010110000000 '
1(
b0000010110100000 -
#1140
#1145
0(
#1150
#1155
b0000010101100000 $
b0000010101100000 '
1(
b0000010110000000 -
#1160
#1165
0(
#1170
#1175
b0000010101000000 $
b0000010101000000 '
1(
b0000010101100000 -
#1180
#1185
0(
#1190
#1195
b0000010100100000 $
b0000010100100000 '
1(
b0000010101000000 -
#1200
#1205
0(
#1210
#1215
b0000010100000000 $
b0000010100000000 '
1(
b0000010100100000 -
#1220
#1225
0(
#1230
#1235
b0000010011100000 $
b0000010011100000 '
1(
b0000010100000000 -
#1240
#1245
0(
#1250
#1255
b0000010011000000 $
b0000010011000000 '
1(
b0000010011100000 -
#1260
#1265
0(
#1270
#1275
b0000010010100000 $
b0000010010100000 '
1(
b0000010011000000 -
#1280
#1285
0(
#1290
#1295
b0000010010000000 $
b0000010010000000 '
1(
b0000010010100000 -
#1300
#1305
0(
#1310
#1315
b0000010001100000 $
b0000010001100000 '
1(
b0000010010000000 -
#1320
#1325
0(
#1330
#1335
b0000010001000000 $
b0000010001000000 '
1(
b0000010001100000 -
#1340
#1345
0(
#1350
#1355
b0000010000100000 $
b0000010000100000 '
1(
b0000010001000000 -
#1360
#1365
0(
#1370
#1375
b0000010000000000 $
b0000010000000000 '
1(
b0000010000100000 -
#1380
#1385
0(
#1390
#1395
b0000001111100000 $
b0000001111100000 '
1(
b0000010000000000 -
#1400
#1405
0(
#1410
#1415
b0000001111000000 $
b0000001111000000 '
1(
b0000001111100000 -
#1420
#1425
0(
#1430
#1435
b0000001110100000 $
b0000001110100000 '
1(
b0000001111000000 -
#1440
#1445
0(
#1450
#1455
b0000001110000000 $
b0000001110000000 '
1(
b0000001110100000 -
#1460
#1465
0(
#1470
#1475
b0000001101100000 $
b0000001101100000 '
1(
b0000001110000000 -
#1480
#1485
0(
#1490
#1495
b0000001101000000 $
b0000001101000000 '
1(
b0000001101100000 -
#1500
#1505
0(
#1510
#1515
b0000001100100000 $
b0000001100100000 '
1(
b0000001101000000 -
#1520
#1525
0(
#1530
#1535
b0000001100000000 $
b0000001100000000 '
1(
b0000001100100000 -
#1540
#1545
0(
#1550
#1555
b0000001011100000 $
b0000001011100000 '
1(
b0000001100000000 -
#1560
#1565
0(
#1570
#1575
b0000001011000000 $
b0000001011000000 '
1(
b0000001011100000 -
#1580
#1585
0(
#1590
#1595
b0000001010100000 $
b0000001010100000 '
1(
b0000001011000000 -
#1600
#1605
0(
#1610
#1615
b0000001010000000 $
b0000001010000000 '
1(
b0000001010100000 -
#1620
#1625
0(
#1630
#1635
b0000001001100000 $
b0000001001100000 '
1(
b0000001010000000 -
#1640
#1645
0(
#1650
#1655
b0000001001000000 $
b0000001001000000 '
1(
b0000001001100000 -
#1660
#1665
0(
#1670
#1675
b0000001000100000 $
b0000001000100000 '
1(
b0000001001000000 -
#1680
#1685
0(
#1690
#1695
b0000001000000000 $
b0000001000000000 '
1(
b0000001000100000 -
#1700
#1705
0(
#1710
#1715
b0000000111100000 $
b0000000111100000 '
1(
b0000001000000000 -
#1720
#1725
0(
#1730
#1735
b0000000111000000 $
b0000000111000000 '
1(
b0000000111100000 -
#1740
#1745
0(
#1750
#1755
b0000000110100000 $
b0000000110100000 '
1(
b0000000111000000 -
#1760
#1765
0(
#1770
#1775
b0000000110000000 $
b0000000110000000 '
1(
b0000000110100000 -
#1780
#1785
0(
#1790
#1795
b0000000101100000 $
b0000000101100000 '
1(
b0000000110000000 -
#1800
#1805
0(
#1810
#1815
b0000000101000000 $
b0000000101000000 '
1(
b0000000101100000 -
#1820
#1825
0(
#1830
#1835
b0000000100100000 $
b0000000100100000 '
1(
b0000000101000000 -
#1840
#1845
0(
#1850
#1855
b0000000100000000 $
b0000000100000000 '
1(
b0000000100100000 -
#1860
#1865
0(
#1870
#1875
b0000000011100000 $
b0000000011100000 '
1(
b0000000100000000 -
#1880
#1885
0(
#1890
#1895
b0000000011000000 $
b0000000011000000 '
1(
b0000000011100000 -
#1900
#1905
0(
#1910
#1915
b0000000010100000 $
b0000000010100000 '
1(
b0000000011000000 -
#1920
#1925
0(
#1930
#1935
b0000000010000000 $
b0000000010000000 '
1(
b0000000010100000 -
#1940
#1945
0(
#1950
#1955
b0000000001100000 $
b0000000001100000 '
1(
b0000000010000000 -
#1960
#1965
0(
#1970
#1975
b0000000001000000 $
b0000000001000000 '
1(
b0000000001100000 -
#1980
#1985
0(
#1990
#1995
b0000000000100000 $
b0000000000100000 '
1(
b0000000001000000 -
#2000
#2005
0(
#2010
#2015
b0000000000000000 $
b0000000000000000 '
1(
b0000000000100000 -
#2020
#2025
0(
#2030
#2035
b0000000000100000 $
b0000000000100000 '
1(
b0000000000100000 )
b0000000000000000 -
b0000000000100000 .
b0000000000100000 /
#2040
#2045
0(
#2050
#2055
b0000000001000000 $
b0000000001000000 '
1(
b0000000000100000 -
#2060
#2065
0(
#2070
#2075
b0000000001100000 $
b0000000001100000 '
1(
b0000000001000000 -
#2080
#2085
0(
#2090
#2095
b0000000010000000 $
b0000000010000000 '
1(
b0000000001100000 -
#2100
#2105
0(
#2110
#2115
b0000000010100000 $
b0000000010100000 '
1(
b0000000010000000 -
#2120
#2125
0(
#2130
#2135
b0000000011000000 $
b0000000011000000 '
1(
b0000000010100000 -
#2140
#2145
0(
#2150
#2155
b0000000011100000 $
b0000000011100000 '
1(
b0000000011000000 -
#2160
#2165
0(
#2170
#2175
b0000000100000000 $
b0000000100000000 '
1(
b0000000011100000 -
#2180
#2185
0(
#2190
#2195
b0000000100100000 $
b0000000100100000 '
1(
b0000000100000000 -
#2200
#2205
0(
#2210
#2215
b0000000101000000 $
b0000000101000000 '
1(
b0000000100100000 -
#2220
#2225
0(
#2230
#2235
b0000000101100000 $
b0000000101100000 '
1(
b0000000101000000 -
#2240
#2245
0(
#2250
#2255
b0000000110000000 $
b0000000110000000 '
1(
b0000000101100000 -
#2260
#2265
0(
#2270
#2275
b0000000110100000 $
b0000000110100000 '
1(
b0000000110000000 -
#2280
#2285
0(
#2290
#2295
b0000000111000000 $
b0000000111000000 '
1(
b0000000110100000 -
#2300
#2305
0(
#2310
#2315
b0000000111100000 $
b0000000111100000 '
1(
b0000000111000000 -
#2320
#2325
0(
#2330
#2335
b0000001000000000 $
b0000001000000000 '
1(
b0000000111100000 -
#2340
#2345
0(
#2350
#2355
b0000001000100000 $
b0000001000100000 '
1(
b0000001000000000 -
#2360
#2365
0(
#2370
#2375
b0000001001000000 $
b0000001001000000 '
1(
b0000001000100000 -
#2380
#2385
0(
#2390
#2395
b0000001001100000 $
b0000001001100000 '
1(
b0000001001000000 -
#2400
#2405
0(
#2410
#2415
b0000001010000000 $
b0000001010000000 '
1(
b0000001001100000 -
#2420
#2425
0(
#2430
#2435
b0000001010100000 $
b0000001010100000 '
1(
b0000001010000000 -
#2440
#2445
0(
#2450
#2455
b0000001011000000 $
b0000001011000000 '
1(
b0000001010100000 -
#2460
#2465
0(
#2470
#2475
b0000001011100000 $
b0000001011100000 '
1(
b0000001011000000 -
#2480
#2485
0(
#2490
#2495
b0000001100000000 $
b0000001100000000 '
1(
b0000001011100000 -
#2500
#2505
0(
#2510
#2515
b0000001100100000 $
b0000001100100000 '
1(
b0000001100000000 -
#2520
#2525
0(
#2530
#2535
b0000001101000000 $
b0000001101000000 '
1(
b0000001100100000 -
#2540
#2545
0(
#2550
#2555
b0000001101100000 $
b0000001101100000 '
1(
b0000001101000000 -
#2560
#2565
0(
#2570
#2575
b0000001110000000 $
b0000001110000000 '
1(
b0000001101100000 -
#2580
#2585
0(
#2590
#2595
b0000001110100000 $
b0000001110100000 '
1(
b0000001110000000 -
#2600
#2605
0(
#2610
#2615
b0000001111000000 $
b0000001111000000 '
1(
b0000001110100000 -
#2620
#2625
0(
#2630
#2635
b0000001111100000 $
b0000001111100000 '
1(
b0000001111000000 -
#2640
#2645
0(
#2650
#2655
b0000010000000000 $
b0000010000000000 '
1(
b0000001111100000 -
#2660
#2665
0(
#2670
#2675
b0000010000100000 $
b0000010000100000 '
1(
b0000010000000000 -
#2680
#2685
0(
#2690
#2695
b0000010001000000 $
b0000010001000000 '
1(
b0000010000100000 -
#2700
#2705
0(
#2710
#2715
b0000010001100000 $
b0000010001100000 '
1(
b0000010001000000 -
#2720
#2725
0(
#2730
#2735
b0000010010000000 $
b0000010010000000 '
1(
b0000010001100000 -
#2740
#2745
0(
#2750
#2755
b0000010010100000 $
b0000010010100000 '
1(
b0000010010000000 -
#2760
#2765
0(
#2770
#2775
b0000010011000000 $
b0000010011000000 '
1(
b0000010010100000 -
#2780
#2785
0(
#2790
#2795
b0000010011100000 $
b0000010011100000 '
1(
b0000010011000000 -
#2800
#2805
0(
#2810
#2815
b0000010100000000 $
b0000010100000000 '
1(
b0000010011100000 -
#2820
#2825
0(
#2830
#2835
b0000010100100000 $
b0000010100100000 '
1(
b0000010100000000 -
#2840
#2845
0(
#2850
#2855
b0000010101000000 $
b0000010101000000 '
1(
b0000010100100000 -
#2860
#2865
0(
#2870
#2875
b0000010101100000 $
b0000010101100000 '
1(
b0000010101000000 -
#2880
#2885
0(
#2890
#2895
b0000010110000000 $
b0000010110000000 '
1(
b0000010101100000 -
#2900
#2905
0(
#2910
#2915
b0000010110100000 $
b0000010110100000 '
1(
b0000010110000000 -
#2920
#2925
0(
#2930
#2935
b0000010111000000 $
b0000010111000000 '
1(
b0000010110100000 -
#2940
#2945
0(
#2950
#2955
b0000010111100000 $
b0000010111100000 '
1(
b0000010111000000 -
#2960
#2965
0(
#2970
#2975
b0000011000000000 $
b0000011000000000 '
1(
b0000010111100000 -
#2980
#2985
0(
#2990
#2995
b0000011000100000 $
b0000011000100000 '
1(
b0000011000000000 -
#3000
#3005
0(
#3010
#3015
b0000011001000000 $
b0000011001000000 '
1(
b0000011000100000 -
#3020
#3025
0(
#3030
#3035
b0000011000100000 $
b0000011000100000 '
1(
b1111111111100000 )
b0000011001000000 -
b1111111111100000 .
b1111111111100000 /
#3040
#3045
0(
#3050
#3055
b0000011000000000 $
b0000011000000000 '
1(
b0000011000100000 -
#3060
#3065
0(
#3070
#3075
b0000010111100000 $
b0000010111100000 '
1(
b0000011000000000 -
#3080
#3085
0(
#3090
#3095
b0000010111000000 $
b0000010111000000 '
1(
b0000010111100000 -
#3100
#3105
0(
#3110
#3115
b0000010110100000 $
b0000010110100000 '
1(
b0000010111000000 -
#3120
#3125
0(
#3130
#3135
b0000010110000000 $
b0000010110000000 '
1(
b0000010110100000 -
#3140
#3145
0(
#3150
#3155
b0000010101100000 $
b0000010101100000 '
1(
b0000010110000000 -
#3160
#3165
0(
#3170
#3175
b0000010101000000 $
b0000010101000000 '
1(
b0000010101100000 -
#3180
#3185
0(
#3190
#3195
b0000010100100000 $
b0000010100100000 '
1(
b0000010101000000 -
#3200
#3205
0(
#3210
#3215
b0000010100000000 $
b0000010100000000 '
1(
b0000010100100000 -
#3220
#3225
0(
#3230
#3235
b0000010011100000 $
b0000010011100000 '
1(
b0000010100000000 -
#3240
#3245
0(
#3250
#3255
b0000010011000000 $
b0000010011000000 '
1(
b0000010011100000 -
#3260
#3265
0(
#3270
#3275
b0000010010100000 $
b0000010010100000 '
1(
b0000010011000000 -
#3280
#3285
0(
#3290
#3295
b0000010010000000 $
b0000010010000000 '
1(
b0000010010100000 -
#3300
#3305
0(
#3310
#3315
b0000010001100000 $
b0000010001100000 '
1(
b0000010010000000 -
#3320
#3325
0(
#3330
#3335
b0000010001000000 $
b0000010001000000 '
1(
b0000010001100000 -
#3340
#3345
0(
#3350
#3355
b0000010000100000 $
b0000010000100000 '
1(
b0000010001000000 -
#3360
#3365
0(
#3370
#3375
b0000010000000000 $
b0000010000000000 '
1(
b0000010000100000 -
#3380
#3385
0(
#3390
#3395
b0000001111100000 $
b0000001111100000 '
1(
b0000010000000000 -
#3400
#3405
0(
#3410
#3415
b0000001111000000 $
b0000001111000000 '
1(
b0000001111100000 -
#3420
#3425
0(
#3430
#3435
b0000001110100000 $
b0000001110100000 '
1(
b0000001111000000 -
#3440
#3445
0(
#3450
#3455
b0000001110000000 $
b0000001110000000 '
1(
b0000001110100000 -
#3460
#3465
0(
#3470
#3475
b0000001101100000 $
b0000001101100000 '
1(
b0000001110000000 -
#3480
#3485
0(
#3490
#3495
b0000001101000000 $
b0000001101000000 '
1(
b0000001101100000 -
#3500
#3505
0(
#3510
#3515
b0000001100100000 $
b0000001100100000 '
1(
b0000001101000000 -
#3520
#3525
0(
#3530
#3535
b0000001100000000 $
b0000001100000000 '
1(
b0000001100100000 -
#3540
#3545
0(
#3550
#3555
b0000001011100000 $
b0000001011100000 '
1(
b0000001100000000 -
#3560
#3565
0(
#3570
#3575
b0000001011000000 $
b0000001011000000 '
1(
b0000001011100000 -
#3580
#3585
0(
#3590
#3595
b0000001010100000 $
b0000001010100000 '
1(
b0000001011000000 -
#3600
#3605
0(
#3610
#3615
b0000001010000000 $
b0000001010000000 '
1(
b0000001010100000 -
#3620
#3625
0(
#3630
#3635
b0000001001100000 $
b0000001001100000 '
1(
b0000001010000000 -
#3640
#3645
0(
#3650
#3655
b0000001001000000 $
b0000001001000000 '
1(
b0000001001100000 -
#3660
#3665
0(
#3670
#3675
b0000001000100000 $
b0000001000100000 '
1(
b0000001001000000 -
#3680
#3685
0(
#3690
#3695
b0000001000000000 $
b0000001000000000 '
1(
b0000001000100000 -
#3700
#3705
0(
#3710
#3715
b0000000111100000 $
b0000000111100000 '
1(
b0000001000000000 -
#3720
#3725
0(
#3730
#3735
b0000000111000000 $
b0000000111000000 '
1(
b0000000111100000 -
#3740
#3745
0(
#3750
#3755
b0000000110100000 $
b0000000110100000 '
1(
b0000000111000000 -
#3760
#3765
0(
#3770
#3775
b0000000110000000 $
b0000000110000000 '
1(
b0000000110100000 -
#3780
#3785
0(
#3790
#3795
b0000000101100000 $
b0000000101100000 '
1(
b0000000110000000 -
#3800
#3805
0(
#3810
#3815
b0000000101000000 $
b0000000101000000 '
1(
b0000000101100000 -
#3820
#3825
0(
#3830
#3835
b0000000100100000 $
b0000000100100000 '
1(
b0000000101000000 -
#3840
#3845
0(
#3850
#3855
b0000000100000000 $
b0000000100000000 '
1(
b0000000100100000 -
#3860
#3865
0(
#3870
#3875
b0000000011100000 $
b0000000011100000 '
1(
b0000000100000000 -
#3880
#3885
0(
#3890
#3895
b0000000011000000 $
b0000000011000000 '
1(
b0000000011100000 -
#3900
#3905
0(
#3910
#3915
b0000000010100000 $
b0000000010100000 '
1(
b0000000011000000 -
#3920
#3925
0(
#3930
#3935
b0000000010000000 $
b0000000010000000 '
1(
b0000000010100000 -
#3940
#3945
0(
#3950
#3955
b0000000001100000 $
b0000000001100000 '
1(
b0000000010000000 -
#3960
#3965
0(
#3970
#3975
b0000000001000000 $
b0000000001000000 '
1(
b0000000001100000 -
#3980
#3985
0(
#3990
#3995
b0000000000100000 $
b0000000000100000 '
1(
b0000000001000000 -
#4000
#4005
0(
#4010
#4015
b0000000000000000 $
b0000000000000000 '
1(
b0000000000100000 -
#4020
#4025
0(
#4030
#4035
b0000000000100000 $
b0000000000100000 '
1(
b0000000000100000 )
b0000000000000000 -
b0000000000100000 .
b0000000000100000 /
#4040
#4045
0(
#4050
#4055
b0000000001000000 $
b0000000001000000 '
1(
b0000000000100000 -
#4060
#4065
0(
#4070
#4075
b0000000001100000 $
b0000000001100000 '
1(
b0000000001000000 -
#4080
#4085
0(
#4090
#4095
b0000000010000000 $
b0000000010000000 '
1(
b0000000001100000 -
#4100
#4105
0(
#4110
#4115
b0000000010100000 $
b0000000010100000 '
1(
b0000000010000000 -
#4120
#4125
0(
#4130
#4135
b0000000011000000 $
b0000000011000000 '
1(
b0000000010100000 -
#4140
#4145
0(
#4150
#4155
b0000000011100000 $
b0000000011100000 '
1(
b0000000011000000 -
#4160
#4165
0(
#4170
#4175
b0000000100000000 $
b0000000100000000 '
1(
b0000000011100000 -
#4180
#4185
0(
#4190
#4195
b0000000100100000 $
b0000000100100000 '
1(
b0000000100000000 -
#4200
#4205
0(
#4210
#4215
b0000000101000000 $
b0000000101000000 '
1(
b0000000100100000 -
#4220
#4225
0(
#4230
#4235
b0000000101100000 $
b0000000101100000 '
1(
b0000000101000000 -
#4240
#4245
0(
#4250
#4255
b0000000110000000 $
b0000000110000000 '
1(
b0000000101100000 -
#4260
#4265
0(
#4270
#4275
b0000000110100000 $
b0000000110100000 '
1(
b0000000110000000 -
#4280
#4285
0(
#4290
#4295
b0000000111000000 $
b0000000111000000 '
1(
b0000000110100000 -
#4300
#4305
0(
#4310
#4315
b0000000111100000 $
b0000000111100000 '
1(
b0000000111000000 -
#4320
#4325
0(
#4330
#4335
b0000001000000000 $
b0000001000000000 '
1(
b0000000111100000 -
#4340
#4345
0(
#4350
#4355
b0000001000100000 $
b0000001000100000 '
1(
b0000001000000000 -
#4360
#4365
0(
#4370
#4375
b0000001001000000 $
b0000001001000000 '
1(
b0000001000100000 -
#4380
#4385
0(
#4390
#4395
b0000001001100000 $
b0000001001100000 '
1(
b0000001001000000 -
#4400
#4405
0(
#4410
#4415
b0000001010000000 $
b0000001010000000 '
1(
b0000001001100000 -
#4420
#4425
0(
#4430
#4435
b0000001010100000 $
b0000001010100000 '
1(
b0000001010000000 -
#4440
#4445
0(
#4450
#4455
b0000001011000000 $
b0000001011000000 '
1(
b0000001010100000 -
#4460
#4465
0(
#4470
#4475
b0000001011100000 $
b0000001011100000 '
1(
b0000001011000000 -
#4480
#4485
0(
#4490
#4495
b0000001100000000 $
b0000001100000000 '
1(
b0000001011100000 -
#4500
#4505
0(
#4510
#4515
b0000001100100000 $
b0000001100100000 '
1(
b0000001100000000 -
#4520
#4525
0(
#4530
#4535
b0000001101000000 $
b0000001101000000 '
1(
b0000001100100000 -
#4540
#4545
0(
#4550
#4555
b0000001101100000 $
b0000001101100000 '
1(
b0000001101000000 -
#4560
#4565
0(
#4570
#4575
b0000001110000000 $
b0000001110000000 '
1(
b0000001101100000 -
#4580
#4585
0(
#4590
#4595
b0000001110100000 $
b0000001110100000 '
1(
b0000001110000000 -
#4600
#4605
0(
#4610
#4615
b0000001111000000 $
b0000001111000000 '
1(
b0000001110100000 -
#4620
#4625
0(
#4630
#4635
b0000001111100000 $
b0000001111100000 '
1(
b0000001111000000 -
#4640
#4645
0(
#4650
#4655
b0000010000000000 $
b0000010000000000 '
1(
b0000001111100000 -
#4660
#4665
0(
#4670
#4675
b0000010000100000 $
b0000010000100000 '
1(
b0000010000000000 -
#4680
#4685
0(
#4690
#4695
b0000010001000000 $
b0000010001000000 '
1(
b0000010000100000 -
#4700
#4705
0(
#4710
#4715
b0000010001100000 $
b0000010001100000 '
1(
b0000010001000000 -
#4720
#4725
0(
#4730
#4735
b0000010010000000 $
b0000010010000000 '
1(
b0000010001100000 -
#4740
#4745
0(
#4750
#4755
b0000010010100000 $
b0000010010100000 '
1(
b0000010010000000 -
#4760
#4765
0(
#4770
#4775
b0000010011000000 $
b0000010011000000 '
1(
b0000010010100000 -
#4780
#4785
0(
#4790
#4795
b0000010011100000 $
b0000010011100000 '
1(
b0000010011000000 -
#4800
#4805
0(
#4810
#4815
b0000010100000000 $
b0000010100000000 '
1(
b0000010011100000 -
#4820
#4825
0(
#4830
#4835
b0000010100100000 $
b0000010100100000 '
1(
b0000010100000000 -
#4840
#4845
0(
#4850
#4855
b0000010101000000 $
b0000010101000000 '
1(
b0000010100100000 -
#4860
#4865
0(
#4870
#4875
b0000010101100000 $
b0000010101100000 '
1(
b0000010101000000 -
#4880
#4885
0(
#4890
#4895
b0000010110000000 $
b0000010110000000 '
1(
b0000010101100000 -
#4900
#4905
0(
#4910
#4915
b0000010110100000 $
b0000010110100000 '
1(
b0000010110000000 -
#4920
#4925
0(
#4930
#4935
b0000010111000000 $
b0000010111000000 '
1(
b0000010110100000 -
#4940
#4945
0(
#4950
#4955
b0000010111100000 $
b0000010111100000 '
1(
b0000010111000000 -
#4960
#4965
0(
#4970
#4975
b0000011000000000 $
b0000011000000000 '
1(
b0000010111100000 -
#4980
#4985
0(
#4990
#4995
b0000011000100000 $
b0000011000100000 '
1(
b0000011000000000 -
#5000
#5005
0(
#5010
#5015
b0000011001000000 $
b0000011001000000 '
1(
b0000011000100000 -
#5020
#5025
0(
#5030
#5035
b0000011000100000 $
b0000011000100000 '
1(
b1111111111100000 )
b0000011001000000 -
b1111111111100000 .
b1111111111100000 /
#5040
#5045
0(
#5050
#5055
b0000011000000000 $
b0000011000000000 '
1(
b0000011000100000 -
#5060
#5065
0(
#5070
#5075
b0000010111100000 $
b0000010111100000 '
1(
b0000011000000000 -
#5080
#5085
0(
#5090
#5095
b0000010111000000 $
b0000010111000000 '
1(
b0000010111100000 -
#5100
#5105
0(
#5110
#5115
b0000010110100000 $
b0000010110100000 '
1(
b0000010111000000 -
#5120
#5125
0(
#5130
#5135
b0000010110000000 $
b0000010110000000 '
1(
b0000010110100000 -
#5140
#5145
0(
#5150
#5155
b0000010101100000 $
b0000010101100000 '
1(
b0000010110000000 -
#5160
#5165
0(
#5170
#5175
b0000010101000000 $
b0000010101000000 '
1(
b0000010101100000 -
#5180
#5185
0(
#5190
#5195
b0000010100100000 $
b0000010100100000 '
1(
b0000010101000000 -
#5200
#5205
0(
#5210
#5215
b0000010100000000 $
b0000010100000000 '
1(
b0000010100100000 -
#5220
#5225
0(
#5230
#5235
b0000010011100000 $
b0000010011100000 '
1(
b0000010100000000 -
#5240
#5245
0(
#5250
#5255
b0000010011000000 $
b0000010011000000 '
1(
b0000010011100000 -
#5260
#5265
0(
#5270
#5275
b0000010010100000 $
b0000010010100000 '
1(
b0000010011000000 -
#5280
#5285
0(
#5290
#5295
b0000010010000000 $
b0000010010000000 '
1(
b0000010010100000 -
#5300
#5305
0(
#5310
#5315
b0000010001100000 $
b0000010001100000 '
1(
b0000010010000000 -
#5320
#5325
0(
#5330
#5335
b0000010001000000 $
b0000010001000000 '
1(
b0000010001100000 -
#5340
#5345
0(
#5350
#5355
b0000010000100000 $
b0000010000100000 '
1(
b0000010001000000 -
#5360
#5365
0(
#5370
#5375
b0000010000000000 $
b0000010000000000 '
1(
b0000010000100000 -
#5380
#5385
0(
#5390
#5395
b0000001111100000 $
b0000001111100000 '
1(
b0000010000000000 -
#5400
#5405
0(
#5410
#5415
b0000001111000000 $
b0000001111000000 '
1(
b0000001111100000 -
#5420
#5425
0(
#5430
#5435
b0000001110100000 $
b0000001110100000 '
1(
b0000001111000000 -
#5440
#5445
0(
#5450
